tx_rollup_rpc_commitment.out

./tezos-client --wait none originate tx rollup from '[PUBLIC_KEY_HASH]' --burn-cap 9999999 --storage-limit 60000
Node is bootstrapped.
Estimated gas: 1420.108 units (will add 100 for safety)
Operation successfully injected in the node.
Operation hash is '[OPERATION_HASH]'
NOT waiting for the operation to be included.
Use command
  tezos-client wait for [OPERATION_HASH] to be included --confirmations 1 --branch [BLOCK_HASH]
and/or an external block explorer to make sure that it has been included.
This sequence of operations was run:
  Manager signed operations:
    From: [PUBLIC_KEY_HASH]
    Fee to the baker: ꜩ0.000379
    Expected counter: 1
    Gas limit: 1521
    Storage limit: 60000 bytes
    Balance updates:
      [PUBLIC_KEY_HASH] ... -ꜩ0.000379
      payload fees(the block proposer) ....... +ꜩ0.000379
    Tx rollup origination:
      From: [PUBLIC_KEY_HASH]
      This tx rollup origination operation was successfully applied
      Balance updates:
        [PUBLIC_KEY_HASH] ... -ꜩ1
        storage fees ........................... +ꜩ1
      Consumed gas: 1420.108
      Originated tx rollup: [TX_ROLLUP_HASH]


./tezos-client --wait none submit tx rollup batch 626c6f62 to '[TX_ROLLUP_HASH]' from '[PUBLIC_KEY_HASH]'
Node is bootstrapped.
Estimated gas: 2108.268 units (will add 100 for safety)
Estimated storage: no bytes added
Operation successfully injected in the node.
Operation hash is '[OPERATION_HASH]'
NOT waiting for the operation to be included.
Use command
  tezos-client wait for [OPERATION_HASH] to be included --confirmations 1 --branch [BLOCK_HASH]
and/or an external block explorer to make sure that it has been included.
This sequence of operations was run:
  Manager signed operations:
    From: [PUBLIC_KEY_HASH]
    Fee to the baker: ꜩ0.000474
    Expected counter: 2
    Gas limit: 2209
    Storage limit: 0 bytes
    Balance updates:
      [PUBLIC_KEY_HASH] ... -ꜩ0.000474
      payload fees(the block proposer) ....... +ꜩ0.000474
    Tx rollup transaction:[TX_ROLLUP_HASH], 4 bytes, From: [PUBLIC_KEY_HASH]
      This tx rollup submit operation was successfully applied
      Balance updates:
        
      Consumed gas: 2108.268


./tezos-client --wait none submit tx rollup commitment 0 '[TX_ROLLUP_INBOX_HASH]'  '[TX_ROLLUP_MESSAGE_RESULT_HASH]' to '[TX_ROLLUP_HASH]' from '[PUBLIC_KEY_HASH]'
Node is bootstrapped.
Estimated gas: 3694.292 units (will add 100 for safety)
Estimated storage: no bytes added
Operation successfully injected in the node.
Operation hash is '[OPERATION_HASH]'
NOT waiting for the operation to be included.
Use command
  tezos-client wait for [OPERATION_HASH] to be included --confirmations 1 --branch [BLOCK_HASH]
and/or an external block explorer to make sure that it has been included.
This sequence of operations was run:
  Manager signed operations:
    From: [PUBLIC_KEY_HASH]
    Fee to the baker: ꜩ0.000697
    Expected counter: 3
    Gas limit: 3795
    Storage limit: 0 bytes
    Balance updates:
      [PUBLIC_KEY_HASH] ... -ꜩ0.000697
      payload fees(the block proposer) ....... +ꜩ0.000697
    Tx rollup commitment:[TX_ROLLUP_HASH], commitment 0 : messages = [TX_ROLLUP_MESSAGE_RESULT_HASH] predecessor  for inbox with merkle root [TX_ROLLUP_INBOX_HASH]
      From: [PUBLIC_KEY_HASH]
      This tx rollup commit operation was successfully applied
      Balance updates:
        [PUBLIC_KEY_HASH] ....................................................... -ꜩ10000
        Frozen_bonds([PUBLIC_KEY_HASH],[TX_ROLLUP_HASH]) ... +ꜩ10000
      Consumed gas: 3694.292


./tezos-client rpc get '/chains/main/blocks/head/context/tx_rollup/[TX_ROLLUP_HASH]/commitment/0'
{ "commitment":
    { "level": 0,
      "messages":
        { "count": 1,
          "root": "[TX_ROLLUP_MESSAGE_RESULT_LIST_HASH]",
          "last_message_result_hash":
            "[TX_ROLLUP_MESSAGE_RESULT_HASH]" },
      "predecessor": null,
      "inbox_merkle_root":
        "[TX_ROLLUP_INBOX_HASH]" },
  "commitment_hash": "[TX_ROLLUP_COMMITMENT_HASH]",
  "committer": "[PUBLIC_KEY_HASH]", "submitted_at": 5 }

./tezos-client rpc get '/chains/main/blocks/head/context/tx_rollup/[TX_ROLLUP_HASH]/state'
{ "last_removed_commitment_hashes": null,
  "finalized_commitments": { "next": 0 },
  "unfinalized_commitments": { "newest": 0, "oldest": 0 },
  "uncommitted_inboxes": { "next": 1 },
  "commitment_newest_hash":
    "[TX_ROLLUP_COMMITMENT_HASH]",
  "tezos_head_level": 3, "burn_per_byte": "0", "allocated_storage": "4000",
  "occupied_storage": "0", "inbox_ema": 0, "commitments_watermark": 0 }
